{
    "border": "pixel",
    "current_border_width": 3,
    "floating": "auto_off",
    "geometry": {
       "height": 1006,
       "width": 1846,
       "x": 0,
       "y": 0
    },
    "marks": [],
    "name": "jdholtz/i3-restore: A simple bash + python script to restore your i3 session — Mozilla Firefox",
    "percent": 1,
    "swallows": [
       {
       "class": "^firefox$",
       "instance": "^Navigator$",
       "machine": "^hera$",
       "title": "^jdholtz\\/i3\\-restore\\:\\ A\\ simple\\ bash\\ \\+\\ python\\ script\\ to\\ restore\\ your\\ i3\\ session\\ \\—\\ Mozilla\\ Firefox$",
       "window_role": "^browser$"
       }
    ],
    "type": "con"
}
